# Blender v2.78 (sub 0) OBJ File: ''
# www.blender.org
mtllib boot.mtl
o ironboots_iron_geom-03C73AB4
v 0.012642 -0.177000 -0.104413
v 0.143342 -0.155800 -0.065513
v 0.037342 -0.297100 -0.118513
v -0.146158 -0.297100 -0.132613
v -0.156758 -0.240600 -0.115013
v -0.343058 -0.297100 -0.132613
v -0.365058 -0.184100 -0.093813
v -0.181558 -0.155800 -0.079713
v -0.212958 -0.095800 0.008587
v -0.372158 -0.138200 0.008587
v -0.428658 -0.191100 0.008587
v -0.410958 -0.297100 -0.104413
v -0.453358 -0.297100 0.008587
v -0.410958 -0.297100 0.121587
v -0.365058 -0.184100 0.110987
v -0.343058 -0.297100 0.149787
v -0.156758 -0.240600 0.146287
v -0.146158 -0.297100 0.163887
v 0.012642 -0.177000 0.121587
v 0.037342 -0.297100 0.139187
v 0.143342 -0.155800 0.082687
v 0.164442 -0.297100 0.093287
v 0.182142 -0.152300 0.008587
v 0.203342 -0.297100 0.008587
v 0.164442 -0.297100 -0.076113
v 0.164442 -0.297100 -0.076113
v 0.203342 -0.297100 0.008587
v 0.164442 -0.297100 0.093287
v 0.037342 -0.297100 -0.118513
v 0.037342 -0.297100 0.139187
v -0.146158 -0.297100 -0.132613
v -0.146158 -0.297100 0.163887
v -0.343058 -0.297100 0.149787
v -0.343058 -0.297100 -0.132613
v -0.410958 -0.297100 -0.104413
v -0.410958 -0.297100 0.121587
v -0.453358 -0.297100 0.008587
v -0.181558 -0.155800 0.096887
v -0.181558 -0.155800 -0.079713
v -0.212958 -0.095800 0.008587
v -0.181558 -0.155800 0.096887
v -0.156758 -0.240600 0.146287
v -0.156758 -0.240600 -0.115013
v 0.012642 -0.177000 -0.104413
v -0.156758 -0.240600 -0.115013
v 0.012642 -0.177000 0.121587
v 0.182142 -0.152300 0.008587
v 0.143342 -0.155800 0.082687
v -0.156758 -0.240600 0.146287
v 0.143342 -0.155800 -0.065513
vt 0.6600 0.8100
vt 0.8700 0.9400
vt 0.6900 0.0000
vt 0.5000 0.0000
vt 0.4700 0.3800
vt 0.2800 0.0000
vt 0.1900 0.8100
vt 0.4700 0.8100
vt 0.4700 0.9400
vt 0.1900 0.9400
vt 0.0300 0.8100
vt 0.1900 0.0000
vt 0.0300 0.0000
vt 0.1900 0.0000
vt 0.1900 0.8100
vt 0.2800 0.0000
vt 0.4700 0.3800
vt 0.5000 0.0000
vt 0.6600 0.8100
vt 0.6900 0.0000
vt 0.8700 0.9400
vt 0.8700 0.0000
vt 0.9700 0.9400
vt 0.9700 0.0000
vt 0.8700 0.0000
vt 0.5600 0.1300
vt 0.5600 0.1300
vt 0.5600 0.1300
vt 0.6300 0.1300
vt 0.6300 0.1300
vt 0.7500 0.1300
vt 0.7500 0.1300
vt 0.8400 0.1300
vt 0.8400 0.1300
vt 0.8700 0.1300
vt 0.8700 0.1300
vt 0.8700 0.1300
vt 0.4700 0.8100
vt 0.5300 0.9400
vt 0.5000 0.9400
vt 0.5300 0.9400
vt 0.5600 0.9400
vt 0.5600 0.9400
vt 0.6300 0.9400
vt 0.5600 0.9400
vt 0.6300 0.9400
vt 0.6900 0.9400
vt 0.6600 0.9400
vt 0.5600 0.9400
vt 0.6600 0.9400
vn 0.2567 0.1646 -0.9524
vn 0.0759 0.1317 -0.9884
vn -0.0486 0.2887 -0.9562
vn 0.0000 0.2974 -0.9548
vn -0.0086 0.3232 -0.9463
vn 0.0112 0.3871 -0.9220
vn -0.0805 0.8109 -0.5796
vn -0.2346 0.8809 -0.4111
vn -0.6400 0.6836 -0.3508
vn -0.8005 0.3694 -0.4719
vn -0.3728 0.2356 -0.8975
vn -0.9147 0.2132 -0.3432
vn -0.9147 0.2132 0.3432
vn -0.8005 0.3694 0.4719
vn -0.3728 0.2356 0.8975
vn -0.0764 0.3105 0.9475
vn -0.0685 0.2850 0.9561
vn 0.0257 0.3017 0.9531
vn 0.1315 0.1702 0.9766
vn 0.2515 0.1908 0.9489
vn 0.3372 0.1204 0.9337
vn 0.8706 0.1648 0.4636
vn 0.9008 0.1319 0.4137
vn 0.9008 0.1319 -0.4137
vn 0.8706 0.1648 -0.4636
vn 0.3143 0.1176 -0.9420
vn -0.0000 -1.0000 -0.0000
vn -0.0805 0.8109 0.5796
vn -0.2346 0.8809 0.4111
vn -0.6400 0.6836 0.3508
vn -0.0108 0.5010 0.8654
vn 0.8860 0.4637 0.0000
vn 0.9598 0.2807 0.0000
vn -0.3515 0.9362 0.0000
vn -0.1442 0.9895 0.0000
vn -0.1727 0.9840 -0.0439
vn -0.1727 0.9840 0.0439
usemtl material-00BCEDC3
s 1
f 1/1/1 2/2/1 3/3/1
f 4/4/2 1/1/2 3/3/2
f 5/5/3 1/1/3 4/4/3
f 6/6/4 5/5/4 4/4/4
f 7/7/5 5/5/5 6/6/5
f 5/5/6 7/7/6 8/8/6
f 7/7/7 9/9/7 8/8/7
f 7/7/8 10/10/8 9/9/8
f 7/7/9 11/11/9 10/10/9
f 12/12/10 11/11/10 7/7/10
f 6/6/11 12/12/11 7/7/11
f 12/12/12 13/13/12 11/11/12
f 14/14/13 11/11/13 13/13/13
f 14/14/14 15/15/14 11/11/14
f 16/16/15 15/15/15 14/14/15
f 16/16/16 17/17/16 15/15/16
f 18/18/17 17/17/17 16/16/17
f 18/18/18 19/19/18 17/17/18
f 20/20/19 19/19/19 18/18/19
f 20/20/20 21/21/20 19/19/20
f 22/22/21 21/21/21 20/20/21
f 22/22/22 23/23/22 21/21/22
f 24/24/23 23/23/23 22/22/23
f 24/24/24 25/25/24 23/23/24
f 23/23/25 25/25/25 2/2/25
f 3/3/26 2/2/26 25/25/26
f 26/26/27 27/27/27 28/28/27
f 29/29/27 26/26/27 28/28/27
f 30/30/27 29/29/27 28/28/27
f 31/31/27 29/29/27 30/30/27
f 32/32/27 31/31/27 30/30/27
f 32/32/27 33/33/27 31/31/27
f 33/33/27 34/34/27 31/31/27
f 34/34/27 33/33/27 35/35/27
f 33/33/27 36/36/27 35/35/27
f 35/35/27 36/36/27 37/37/27
f 15/15/28 38/38/28 9/9/28
f 15/15/29 9/9/29 10/10/29
f 15/15/30 10/10/30 11/11/30
f 38/38/31 15/15/31 17/17/31
f 39/39/32 40/40/32 41/41/32
f 41/41/33 42/42/33 39/39/33
f 42/42/33 43/43/33 39/39/33
f 44/44/34 45/45/34 46/46/34
f 46/46/35 47/47/35 44/44/35
f 46/46/36 48/48/36 47/47/36
f 45/45/34 49/49/34 46/46/34
f 44/44/37 47/47/37 50/50/37
o ironboots_leather_geom-02A45BDB
v -0.013058 0.259100 -0.101213
v -0.142858 0.094700 -0.080413
v -0.142658 0.233200 -0.033013
v 0.003442 0.118500 -0.123513
v 0.126242 0.278200 -0.034013
v 0.180242 0.138000 -0.035213
v -0.119958 0.141700 0.063087
v -0.009858 0.200900 0.138187
v -0.128258 0.199700 0.061287
v 0.002542 0.143500 0.132987
v -0.065058 -0.025900 0.073087
v -0.105658 0.010800 0.004787
v -0.112258 -0.088200 0.099687
v 0.047042 -0.062300 0.114387
v 0.129442 0.129900 0.094987
v 0.160342 -0.065600 0.081187
v 0.047342 -0.129300 0.155287
v 0.039342 -0.183400 0.110287
v -0.084758 -0.144100 0.084487
v -0.130958 -0.084200 0.009087
v -0.145158 -0.041300 -0.008513
v -0.085058 -0.008800 -0.070313
v -0.113958 0.144000 -0.033413
v -0.058658 -0.290000 -0.090713
v -0.102058 -0.120600 -0.073213
v 0.011442 -0.172200 -0.092413
v -0.193158 -0.176400 -0.071213
v -0.130958 -0.084200 0.009087
v -0.212958 -0.132600 0.000587
v -0.180758 -0.181000 0.088787
v -0.084758 -0.144100 0.084487
v -0.034958 -0.290000 0.126287
v -0.167358 -0.290000 0.144987
v 0.039342 -0.183400 0.110287
v 0.055542 -0.034900 -0.100713
v 0.051442 -0.114400 -0.134313
v -0.110458 -0.081200 -0.092113
v -0.085058 -0.008800 -0.070313
v 0.015242 0.140200 -0.097513
v -0.113958 0.144000 -0.033413
v 0.001842 0.198500 -0.096513
v 0.134942 0.178900 -0.028913
v 0.142042 0.138100 -0.033613
v 0.169642 -0.052600 -0.051713
v 0.203742 -0.107700 -0.058213
v 0.144942 -0.163700 -0.048113
v 0.011442 -0.172200 -0.092413
v -0.102058 -0.120600 -0.073213
v -0.192058 -0.290000 -0.111013
v 0.120442 0.178600 0.099087
v 0.134942 0.178900 -0.028913
v 0.142042 0.138100 -0.033613
v 0.169642 -0.052600 -0.051713
v 0.203742 -0.107700 -0.058213
v 0.192842 -0.111100 0.088187
v 0.144942 -0.163700 -0.048113
v 0.133242 -0.167900 0.066987
v -0.177658 0.092400 0.099187
v -0.014858 0.255200 0.154287
v -0.151158 0.233200 0.054587
v -0.128258 0.199700 0.061287
v -0.123958 0.199700 0.015087
v -0.134658 0.247200 0.036687
v -0.002258 0.116200 0.196287
v 0.112642 0.276700 0.088787
v 0.159442 0.131900 0.112287
v 0.180242 0.138000 -0.035213
v 0.126242 0.278200 -0.034013
v -0.123958 0.199700 0.015087
v -0.119758 0.201300 -0.031013
v -0.119958 0.141700 0.063087
v -0.128258 0.199700 0.061287
v -0.119758 0.201300 -0.031013
v -0.130458 0.247200 -0.016413
v -0.102058 -0.120600 -0.073213
v -0.110458 -0.081200 -0.092113
v -0.134658 0.247200 0.036687
v -0.107458 0.194200 0.051087
v -0.123958 0.199700 0.015087
v -0.014858 0.255200 0.154287
v 0.112642 0.276700 0.088787
v -0.100058 0.194200 -0.033113
v 0.126242 0.278200 -0.034013
v -0.013058 0.259100 -0.101213
v -0.130458 0.247200 -0.016413
vt 0.4100 0.3100
vt 0.5900 0.0000
vt 0.6900 0.2800
vt 0.4100 0.0000
vt 0.2000 0.3100
vt 0.2000 0.0000
vt 0.7200 0.8400
vt 0.5000 0.9500
vt 0.7200 1.0000
vt 0.5000 0.8600
vt 0.7200 0.6100
vt 0.8600 0.6900
vt 0.7200 0.5000
vt 0.5000 0.5600
vt 0.2500 0.8600
vt 0.2500 0.5600
vt 0.5000 0.4400
vt 0.5600 0.3500
vt 0.7200 0.4400
vt 0.8400 0.4400
vt 0.8700 0.5100
vt 0.9800 0.6100
vt 0.9800 0.8400
vt 0.8000 0.0200
vt 0.8000 0.1900
vt 0.7200 0.1100
vt 0.9700 0.1400
vt 0.8000 0.3300
vt 0.9700 0.3300
vt 0.9700 0.1400
vt 0.8000 0.1900
vt 0.8000 0.0200
vt 0.9700 0.0200
vt 0.7200 0.1100
vt 0.5000 0.5600
vt 0.5000 0.4400
vt 0.7200 0.5000
vt 0.7200 0.6100
vt 0.5000 0.8600
vt 0.7200 0.8400
vt 0.5000 0.9500
vt 0.2500 0.9500
vt 0.2500 0.8600
vt 0.2500 0.5600
vt 0.2500 0.4400
vt 0.2500 0.3500
vt 0.5600 0.3500
vt 0.7200 0.4400
vt 0.9700 0.0200
vt 0.2500 0.9500
vt 0.0200 0.9500
vt 0.0200 0.8600
vt 0.0200 0.5600
vt 0.0200 0.4400
vt 0.2500 0.4400
vt 0.0200 0.3500
vt 0.2500 0.3500
vt 0.5900 0.0000
vt 0.4100 0.3100
vt 0.6900 0.2800
vt 0.6700 0.1900
vt 0.7600 0.2000
vt 0.7600 0.3300
vt 0.4100 0.0000
vt 0.2000 0.3100
vt 0.2000 0.0000
vt 0.0200 0.0000
vt 0.0200 0.3100
vt 0.8600 1.0000
vt 0.7200 1.0000
vt 0.9800 0.8400
vt 0.9800 1.0000
vt 0.6700 0.1900
vt 0.7600 0.3300
vt 0.9800 0.4400
vt 0.9800 0.5000
vt 0.6900 0.1300
vt 0.6900 0.0200
vt 0.6900 0.0200
vt 0.6900 0.1300
vt 0.6900 0.1300
vt 0.6900 0.0200
vt 0.6900 0.1300
vt 0.6900 0.1300
vt 0.6900 0.1300
vn -0.4903 0.2828 -0.8244
vn -0.2979 0.1153 -0.9476
vn 0.4054 0.1894 -0.8943
vn 0.4250 0.1713 -0.8888
vn -0.5436 -0.0518 0.8378
vn -0.4853 -0.1823 0.8551
vn -0.4914 -0.1094 0.8640
vn -0.8846 -0.2669 0.3824
vn -0.4761 0.6249 0.6188
vn -0.1584 0.4868 0.8590
vn -0.3879 -0.1658 0.9067
vn 0.2838 -0.0249 0.9586
vn 0.2815 -0.0242 0.9592
vn 0.2840 -0.0272 0.9584
vn 0.2805 -0.0234 0.9596
vn 0.2563 0.5045 0.8245
vn -0.1613 0.5137 0.8427
vn -0.3975 -0.5513 0.7335
vn -0.3034 -0.3861 0.8711
vn -0.8682 -0.4702 0.1584
vn -0.9530 -0.2391 0.1861
vn -0.7670 0.4700 0.4369
vn -0.6996 0.6207 -0.3539
vn -0.9646 -0.1265 -0.2316
vn -0.9947 -0.0803 -0.0638
vn -0.1367 0.0671 -0.9883
vn -0.0732 0.0839 -0.9938
vn -0.4633 0.7388 -0.4894
vn -0.3791 0.7398 -0.5558
vn -0.4660 0.6928 0.5503
vn -0.2331 0.6868 0.6885
vn -0.0557 0.2574 0.9647
vn 0.1237 0.4667 0.8757
vn -0.1267 0.2330 0.9642
vn -0.1561 0.3913 -0.9069
vn -0.1405 0.3303 -0.9334
vn -0.2169 -0.0321 -0.9757
vn -0.4374 0.1321 -0.8895
vn -0.4448 -0.0869 -0.8914
vn 0.4636 0.1216 -0.8776
vn 0.4452 0.1785 -0.8775
vn 0.4484 0.1194 -0.8858
vn 0.4093 0.1447 -0.9008
vn 0.4152 0.3359 -0.8454
vn 0.4062 0.3509 -0.8437
vn 0.3935 -0.5465 -0.7393
vn 0.2695 -0.6805 -0.6814
vn -0.3078 -0.4095 -0.8588
vn -0.3490 -0.4648 -0.8138
vn 0.1421 0.3285 -0.9337
vn 0.2835 -0.0262 0.9586
vn 0.9789 0.1715 0.1113
vn 0.9810 0.1615 0.1074
vn 0.9795 0.1688 0.1103
vn 0.9816 0.1586 0.1063
vn 0.9833 0.1480 0.1058
vn 0.9874 0.1351 0.0823
vn 0.8509 0.5137 0.1098
vn 0.8061 0.5871 0.0737
vn 0.6924 -0.7207 0.0348
vn 0.6813 -0.7308 0.0426
vn 0.4019 -0.6590 0.6357
vn 0.3907 -0.6221 0.6785
vn 0.3477 0.3802 0.8571
vn 0.2833 -0.0257 0.9587
vn -0.5901 0.3426 0.7311
vn -0.1275 -0.2776 -0.9522
vn -0.8160 -0.5730 -0.0760
vn -0.7723 0.1105 -0.6255
vn -0.3792 0.8655 0.3274
vn 0.3959 0.2983 0.8685
vn -0.4952 0.2099 0.8431
vn 0.4217 0.2765 0.8635
vn 0.9343 0.3255 0.1452
vn 0.9281 0.3566 0.1071
vn -0.9909 -0.0964 -0.0936
vn -0.4744 -0.0112 -0.8802
vn -0.9905 -0.1217 -0.0645
vn -0.9853 -0.1439 -0.0917
vn -0.4702 -0.2852 0.8352
vn -0.8060 -0.5845 -0.0937
vn -0.8613 0.1936 0.4697
vn -0.3831 0.8254 -0.4146
vn -0.9160 -0.3683 -0.1588
vn -0.9215 -0.3092 -0.2349
vn -0.7513 0.4175 -0.5111
vn 0.8699 0.3527 -0.3448
vn 0.6861 0.1593 -0.7098
vn -0.2957 0.9147 -0.2754
vn -0.3466 0.9375 -0.0297
vn -0.3477 0.9372 -0.0276
vn -0.3462 0.9376 -0.0304
vn -0.3480 0.9371 -0.0271
vn -0.3157 0.8550 0.4115
vn 0.5788 0.0761 0.8119
vn 0.8492 0.3676 0.3791
vn 0.2693 0.9628 0.0237
usemtl material-01DC1A6B
s 1
f 51/51/38 52/52/38 53/53/38
f 51/51/39 54/54/39 52/52/39
f 51/51/40 55/55/40 54/54/40
f 54/54/41 55/55/41 56/56/41
f 57/57/42 58/58/42 59/59/42
f 57/57/43 60/60/43 58/58/43
f 61/61/44 60/60/44 57/57/44
f 61/61/45 57/57/45 62/62/45
f 61/61/46 62/62/46 63/63/46
f 61/61/47 63/63/47 64/64/47
f 64/64/48 60/60/48 61/61/48
f 64/64/49 65/65/50 60/60/51
f 66/66/52 65/65/50 64/64/49
f 64/64/53 67/67/53 66/66/53
f 64/64/54 63/63/54 67/67/54
f 63/63/55 68/68/55 67/67/55
f 63/63/56 69/69/56 68/68/56
f 63/63/57 70/70/57 69/69/57
f 63/63/58 71/71/58 70/70/58
f 63/63/59 62/62/59 71/71/59
f 62/62/60 72/72/60 71/71/60
f 72/72/61 62/62/61 73/73/61
f 57/57/62 73/73/62 62/62/62
f 74/74/63 75/75/63 76/76/63
f 75/75/64 74/74/64 77/77/64
f 78/78/65 75/75/65 77/77/65
f 78/78/66 77/77/66 79/79/66
f 80/80/67 78/78/67 79/79/67
f 81/81/68 78/78/68 80/80/68
f 82/82/69 81/81/69 80/80/69
f 83/83/70 82/82/70 80/80/70
f 82/82/71 84/84/71 81/81/71
f 85/85/72 86/86/72 87/87/72
f 87/87/73 88/88/73 85/85/73
f 88/88/74 89/89/74 85/85/74
f 90/90/75 89/89/75 88/88/75
f 91/91/76 89/89/76 90/90/76
f 91/91/77 92/92/77 89/89/77
f 89/89/78 92/92/78 93/93/78
f 89/89/79 93/93/79 85/85/79
f 85/85/80 93/93/80 94/94/80
f 86/86/81 85/85/81 94/94/81
f 86/86/82 94/94/82 95/95/82
f 86/86/83 95/95/83 96/96/83
f 97/97/84 86/86/84 96/96/84
f 87/87/85 86/86/85 97/97/85
f 87/87/86 97/97/86 98/98/86
f 77/77/87 74/74/87 99/99/87
f 65/65/50 100/100/88 60/60/51
f 100/100/89 65/65/90 101/101/91
f 101/101/91 65/65/90 102/102/92
f 65/65/93 66/66/93 102/102/93
f 102/102/94 66/66/94 103/103/94
f 104/104/95 103/103/95 66/66/95
f 104/104/96 66/66/96 105/105/96
f 104/104/97 105/105/97 106/106/97
f 107/107/98 106/106/98 105/105/98
f 105/105/99 68/68/99 107/107/99
f 67/67/100 68/68/100 105/105/100
f 66/66/101 67/67/101 105/105/101
f 60/60/51 100/100/88 58/58/102
f 108/108/103 109/109/103 110/110/103
f 110/110/104 111/111/104 108/108/104
f 112/112/105 111/111/105 110/110/105
f 112/112/106 110/110/106 113/113/106
f 109/109/107 113/113/107 110/110/107
f 114/114/108 115/115/108 109/109/108
f 108/108/109 114/114/109 109/109/109
f 114/114/110 116/116/110 115/115/110
f 117/117/111 115/115/111 116/116/111
f 118/118/112 115/115/112 117/117/112
f 90/90/113 119/119/113 120/120/113
f 120/120/114 91/91/114 90/90/114
f 90/90/115 121/121/115 119/119/115
f 119/119/116 121/121/116 122/122/116
f 123/123/117 53/53/117 52/52/117
f 123/123/118 112/112/118 53/53/118
f 53/53/119 112/112/119 124/124/119
f 51/51/120 53/53/120 124/124/120
f 70/70/121 71/71/121 125/125/121
f 125/125/122 71/71/122 126/126/122
f 71/71/123 72/72/123 126/126/123
f 127/127/124 128/128/124 129/129/124
f 130/130/125 128/128/125 127/127/125
f 131/131/126 128/128/126 130/130/126
f 131/131/127 132/132/128 128/128/129
f 133/133/130 132/132/128 131/131/127
f 134/134/131 132/132/131 133/133/131
f 134/134/132 135/135/132 132/132/132
f 132/132/133 135/135/133 129/129/133
f 129/129/134 128/128/134 132/132/134
