# Blender v2.78 (sub 0) OBJ File: 'legs.blend'
# www.blender.org
mtllib innerLeft.mtl
o Left.001_Cube.000
v -0.224992 0.734073 -0.087793
v -0.200186 0.438582 -0.083648
v -0.063367 0.680351 -0.201070
v -0.224992 0.734073 0.164082
v -0.062437 0.681040 0.268722
v 0.226185 0.675811 -0.004057
v 0.167811 0.676383 -0.205179
v 0.181594 0.675811 0.194466
v -0.232830 0.734073 0.016940
v -0.078715 0.389128 -0.175413
v -0.200186 0.438582 0.120398
v -0.077859 0.389762 0.208485
v 0.192403 0.384949 -0.015812
v 0.134095 0.385475 -0.178742
v 0.137019 0.384949 0.142825
v -0.200186 0.438582 0.001198
v 0.241421 1.392490 0.006837
v 0.185504 1.392490 0.281931
v -0.258946 1.388027 0.212354
v -0.071900 1.353281 0.343802
v 0.165402 1.387436 -0.238995
v -0.258946 1.388027 -0.095514
v -0.271498 1.388027 0.032502
v -0.047818 0.159200 -0.238555
v 0.134293 0.155326 0.053086
v -0.166551 0.205040 -0.150169
v -0.166551 0.205040 -0.068449
v -0.166551 0.205040 0.047638
v 0.131313 0.155813 -0.241761
v -0.047097 0.159787 0.123136
v 0.157099 0.155326 -0.084832
v -0.224992 0.734073 0.133131
v 0.201090 0.675811 0.152708
v -0.200186 0.438582 0.095325
v 0.164730 0.384949 0.109457
v 0.199700 1.392490 0.224067
v -0.258946 1.388027 0.174523
v -0.166551 0.205040 0.023220
v 0.157099 0.155326 0.024076
v -0.224992 0.734073 -0.063971
v 0.201090 0.675811 -0.159889
v 0.157099 0.155326 -0.206423
v -0.258946 1.388027 -0.066396
v 0.199700 1.392490 -0.183637
v -0.203483 0.438582 -0.064349
v 0.164730 0.384949 -0.142052
v -0.166551 0.205040 -0.131581
v 0.090550 0.678004 0.225613
v 0.090160 0.677716 -0.203799
v 0.062973 0.386968 0.170367
v 0.062614 0.386702 -0.177624
v 0.085373 1.375643 -0.237308
v 0.085774 1.376043 0.307884
v 0.071144 0.156951 -0.240684
v 0.071447 0.157197 0.082469
v -0.041916 -0.241571 0.045827
v 0.186374 -0.245419 -0.322470
v 0.186374 -0.245419 -0.157348
v -0.175464 -0.202543 -0.016058
v -0.175464 -0.202543 -0.225895
v 0.163810 -0.245419 -0.013310
v -0.175464 -0.202543 -0.140160
v -0.042722 -0.242078 -0.318622
v 0.186374 -0.245419 -0.043608
v -0.175464 -0.202543 -0.042162
v -0.175464 -0.202543 -0.206393
v 0.186374 -0.245419 -0.284911
v 0.090615 -0.243805 0.011496
v 0.090277 -0.244017 -0.320855
v -0.082111 1.377659 -0.226179
vn -0.2515 0.1078 -0.9618
vn -0.9466 0.0371 -0.3202
vn 0.9965 0.0837 0.0000
vn 0.9940 0.0784 0.0760
vn -0.7799 0.1404 0.6099
vn 0.5978 0.0503 0.8001
vn 0.9987 0.0519 0.0000
vn -0.7792 -0.1510 0.6083
vn 0.0113 -0.2638 0.9645
vn 0.5902 0.1499 -0.7932
vn -0.8295 0.2004 -0.5213
vn -0.2569 0.2062 -0.9442
vn 0.0182 0.0873 0.9960
vn 0.5733 0.0945 -0.8139
vn -0.8305 0.0202 0.5567
vn 0.9898 0.1426 0.0000
vn 0.6137 0.3299 -0.7173
vn -0.9305 -0.1630 0.3281
vn -0.7526 0.2494 -0.6095
vn 0.0137 -0.1955 0.9806
vn 0.9998 -0.0219 0.0000
vn 0.9885 0.1247 0.0860
vn 0.5537 -0.1519 0.8187
vn -0.2693 0.3194 -0.9085
vn 0.5091 0.1455 -0.8483
vn -0.9842 0.0196 -0.1758
vn 0.9943 0.1000 -0.0371
vn -0.9740 0.1347 -0.1822
vn 0.9952 0.0587 -0.0786
vn -0.9845 0.1312 -0.1163
vn -0.9759 0.1196 0.1826
vn -0.9920 0.0606 0.1108
vn 0.9922 0.0540 0.1125
vn 0.9954 0.0904 0.0309
vn -0.9973 -0.0729 0.0000
vn -0.9818 0.0112 0.1894
vn 0.9873 0.1566 -0.0253
vn -0.2927 0.1137 -0.9494
vn 0.0113 -0.2645 0.9643
vn -0.3228 0.2096 -0.9230
vn 0.0182 0.0881 0.9959
vn 0.0163 0.0478 0.9987
vn 0.0137 -0.1954 0.9806
vn -0.3539 0.3335 -0.8738
vn 0.5400 -0.1616 0.8260
vn -0.2793 0.1663 -0.9457
vn -0.7935 0.0433 -0.6070
vn -0.3636 0.1358 -0.9216
vn 0.5895 0.0426 0.8067
vn 0.0181 -0.9997 -0.0165
vn 0.0437 0.0427 0.9981
usemtl Material.001
s off
f 53//1 48//1 5//1 20//1
f 36//2 33//2 8//2 18//2
f 34//3 32//3 4//3 11//3
f 40//4 45//4 2//4 1//4
f 46//5 41//5 7//5 14//5
f 1//6 2//6 10//6 3//6
f 43//7 40//7 1//7 22//7
f 42//8 46//8 14//8 29//8
f 54//9 51//9 10//9 24//9
f 11//10 4//10 5//10 12//10
f 33//11 35//11 15//11 8//11
f 48//12 50//12 12//12 5//12
f 51//13 49//13 3//13 10//13
f 4//14 19//14 20//14 5//14
f 41//15 44//15 21//15 7//15
f 32//7 37//7 19//7 4//7
f 38//16 34//16 11//16 28//16
f 28//17 11//17 12//17 30//17
f 67//18 42//18 29//18 57//18
f 35//19 39//19 25//19 15//19
f 69//20 54//20 24//20 63//20
f 65//21 38//21 28//21 59//21
f 45//22 47//22 26//22 2//22
f 2//23 26//23 24//23 10//23
f 50//24 55//24 30//24 12//24
f 59//25 28//25 30//25 56//25
f 17//26 6//26 33//26 36//26
f 16//27 9//27 32//27 34//27
f 6//28 13//28 35//28 33//28
f 9//29 23//29 37//29 32//29
f 27//16 16//16 34//16 38//16
f 13//30 31//30 39//30 35//30
f 62//21 27//21 38//21 65//21
f 13//31 6//31 41//31 46//31
f 31//32 13//32 46//32 42//32
f 23//33 9//33 40//33 43//33
f 9//34 16//34 45//34 40//34
f 58//35 31//35 42//35 67//35
f 6//36 17//36 44//36 41//36
f 16//37 27//37 47//37 45//37
f 18//38 8//38 48//38 53//38
f 29//39 14//39 51//39 54//39
f 8//40 15//40 50//40 48//40
f 14//41 7//41 49//41 51//41
f 7//42 21//42 52//42 49//42
f 57//43 29//43 54//43 69//43
f 15//44 25//44 55//44 50//44
f 26//45 60//45 63//45 24//45
f 55//46 68//46 56//46 30//46
f 47//21 66//21 60//21 26//21
f 39//47 64//47 61//47 25//47
f 31//35 58//35 64//35 39//35
f 27//21 62//21 66//21 47//21
f 25//48 61//48 68//48 55//48
f 1//49 3//49 70//49 22//49
f 52//50 21//50 44//50 17//50 36//50 18//50 53//50 20//50 19//50 37//50 23//50 43//50 22//50 70//50
f 52//51 70//51 3//51 49//51
o Left_Cube.001
v 0.230649 -0.254200 -0.367307
v -0.125516 -1.057695 -0.237973
v -0.042861 -1.086673 -0.305948
v -0.140889 -1.057695 -0.086828
v -0.057732 -1.086302 -0.037575
v 0.110500 -1.089122 -0.187725
v -0.114590 -1.401485 -0.367271
v 0.099790 -1.089122 -0.308769
v 0.062946 -1.089122 -0.089875
v -0.125516 -1.057695 -0.175125
v -0.055520 -0.250040 -0.362504
v 0.202503 -0.254200 0.018589
v -0.054513 -0.249410 0.092201
v -0.221332 -0.200814 -0.246758
v 0.230649 -0.254200 -0.161196
v -0.221332 -0.200814 -0.139741
v -0.221332 -0.200814 0.015202
v -0.043712 -0.573905 -0.295546
v 0.181559 -0.576806 -0.144999
v -0.042920 -0.573466 0.024370
v 0.181559 -0.576806 -0.299137
v -0.042659 -0.800399 -0.286096
v 0.134478 -0.803228 -0.173837
v -0.042035 -0.799970 -0.030396
v 0.134478 -0.803228 -0.288774
v -0.174238 -0.539585 -0.016516
v -0.174238 -0.539585 -0.128954
v -0.174238 -0.539585 -0.208986
v 0.146832 -0.576806 -0.036641
v 0.108210 -0.803228 -0.081525
v -0.145294 -0.766922 -0.221550
v -0.145294 -0.766922 -0.161872
v -0.145294 -0.766922 -0.078030
v -0.224837 -1.496401 -0.232607
v -0.096298 -1.502572 -0.299584
v -0.172602 -1.496401 -0.083682
v -0.043283 -1.502493 -0.035152
v 0.101637 -1.503093 -0.183097
v -0.095221 -1.502463 -0.170682
v 0.125543 -1.503093 -0.302363
v 0.177778 -1.503093 -0.086684
v -0.224837 -1.496401 -0.170682
v 0.083345 -1.402475 -0.205733
v 0.107251 -1.402475 -0.330862
v -0.243129 -1.389771 -0.286216
v -0.190186 -1.389771 -0.193318
v -0.190894 -1.389771 -0.097871
v -0.063702 -1.412353 0.528124
v 0.041576 -1.431741 0.588508
v 0.341293 -1.433194 0.452772
v 0.219228 -1.433432 0.529187
v -0.042312 -1.512694 0.511578
v 0.066708 -1.527877 0.586783
v 0.366642 -1.527121 0.451231
v 0.284425 -1.529184 0.532099
v 0.045975 -1.480912 0.613047
v 0.347992 -1.480291 0.469960
v 0.266071 -1.482298 0.549788
v -0.063634 -1.460485 0.542043
v 0.258993 -1.384924 0.103034
v -0.168537 -1.398682 0.163540
v -0.156457 -1.287843 0.171498
v 0.224500 -1.500109 0.185760
v -0.000116 -1.495547 0.226309
v 0.157459 -1.289966 0.190627
v -0.028260 -1.255784 0.237183
v 0.289070 -1.425427 0.100488
v -0.113714 -1.480612 0.157655
v 0.279080 -1.496532 0.097948
v -0.125516 -1.057695 -0.105401
v 0.089904 -1.089122 -0.110457
v -0.221332 -0.200814 -0.017390
v 0.230649 -0.254200 -0.019228
v -0.174238 -0.539585 -0.040167
v -0.145294 -0.766922 -0.095666
v 0.181559 -0.576806 -0.059434
v 0.134478 -0.803228 -0.100942
v -0.171894 -1.496401 -0.101982
v -0.019314 -1.502487 -0.063660
v 0.101637 -1.503093 -0.106964
v -0.190186 -1.389771 -0.117948
v 0.244904 -1.433382 0.513113
v 0.301719 -1.528750 0.515089
v 0.283303 -1.481876 0.532997
v 0.191492 -1.310520 0.173619
v 0.235980 -1.499357 0.167289
v -0.221332 -0.200814 -0.222416
v 0.230649 -0.254200 -0.320425
v -0.125516 -1.057695 -0.223678
v 0.105722 -1.089122 -0.281236
v -0.174238 -0.539585 -0.190782
v 0.134478 -0.803228 -0.262631
v 0.181559 -0.576806 -0.264077
v -0.190186 -1.389771 -0.265085
v 0.107251 -1.402475 -0.302400
v -0.096053 -1.502547 -0.270264
v -0.224837 -1.496401 -0.218522
v 0.125543 -1.503093 -0.275235
v -0.145294 -0.766922 -0.207976
v 0.024791 -1.087939 -0.067937
v 0.039953 -1.088095 -0.307586
v 0.110611 -0.252455 -0.365292
v 0.111034 -0.252191 0.049467
v 0.087066 -0.575589 -0.297631
v 0.060176 -0.802041 -0.287651
v 0.087399 -0.575405 -0.011050
v 0.060437 -0.801861 -0.060078
v 0.032941 -1.502829 -0.177889
v 0.085051 -1.502842 -0.065068
v 0.032489 -1.502875 -0.301197
v 0.014197 -1.402060 -0.346134
v 0.144709 -1.432723 0.554070
v 0.193101 -1.528636 0.555037
v 0.173749 -1.481717 0.576323
v 0.130282 -1.498196 0.202769
v 0.088876 -1.276055 0.211197
v 0.032843 -1.502839 -0.088799
v 0.032592 -1.502864 -0.273150
v -0.041916 -0.241571 0.045827
v 0.186374 -0.245419 -0.322470
v 0.186374 -0.245419 -0.157348
v -0.175464 -0.202543 -0.016058
v -0.175464 -0.202543 -0.225895
v 0.163810 -0.245419 -0.013310
v -0.175464 -0.202543 -0.140160
v -0.042722 -0.242078 -0.318622
v 0.186374 -0.245419 -0.043608
v -0.175464 -0.202543 -0.042162
v -0.175464 -0.202543 -0.206393
v 0.186374 -0.245419 -0.284911
v 0.090615 -0.243805 0.011496
v 0.090277 -0.244017 -0.320855
vn 0.5743 -0.0319 0.8180
vn -0.3074 0.0525 -0.9501
vn 0.4563 0.5073 0.7311
vn -0.0922 -0.1422 0.9855
vn -0.4403 -0.8586 -0.2625
vn 0.3238 -0.7529 -0.5729
vn 0.9977 0.0679 0.0000
vn -0.5965 0.1185 -0.7938
vn -0.9886 0.1504 0.0000
vn -0.1362 -0.9667 0.2165
vn 0.0189 0.2033 0.9789
vn -0.0638 -0.9811 -0.1828
vn -0.0377 -0.9993 0.0000
vn 0.9905 0.1377 0.0000
vn 0.4028 0.1707 -0.8992
vn -0.1385 -0.9850 -0.1031
vn 0.5885 0.1770 0.7889
vn 0.0160 -0.0699 0.9974
vn -0.6779 0.2141 -0.7033
vn 0.9202 0.0258 0.3907
vn 0.0162 0.0419 0.9990
vn -0.2586 0.2299 -0.9382
vn -0.9791 0.2036 0.0000
vn -0.2477 0.1929 -0.9494
vn 0.9920 0.1263 0.0000
vn 0.4038 0.2519 -0.8795
vn 0.5498 0.0306 0.8347
vn -0.5501 0.2558 -0.7950
vn 0.4651 0.0154 -0.8851
vn -0.9887 0.1023 0.1093
vn 0.0477 0.9983 -0.0348
vn 0.0038 1.0000 0.0001
vn 0.0024 1.0000 -0.0002
vn 0.0474 0.9989 -0.0008
vn -0.9942 -0.0215 0.1053
vn 0.5081 -0.3978 -0.7639
vn 0.9097 -0.1705 0.3785
vn -0.9219 -0.3655 0.1286
vn 0.5146 -0.2874 0.8078
vn -0.0648 0.4771 0.8764
vn 0.9880 -0.1353 -0.0751
vn 0.0068 0.9997 -0.0230
vn -0.9839 -0.1789 0.0000
vn 0.5557 -0.0404 -0.8304
vn 0.9841 0.1740 0.0363
vn -0.1949 -0.8978 -0.3949
vn -0.2412 0.3546 -0.9034
vn -0.6995 -0.0030 -0.7146
vn 0.4536 -0.3095 -0.8357
vn -0.2608 -0.4863 -0.8339
vn -0.4567 -0.6517 -0.6056
vn 0.5161 0.5796 -0.6306
vn 0.0875 0.9935 0.0727
vn 0.8450 0.5168 -0.1372
vn -0.0237 -0.9995 0.0201
vn -0.8370 0.0235 0.5467
vn -0.5038 -0.7665 -0.3983
vn 0.2781 -0.8596 -0.4287
vn -0.8678 -0.0360 0.4957
vn 0.9569 -0.0827 -0.2783
vn 0.0309 0.9961 0.0821
vn -0.2325 -0.8345 -0.4995
vn 0.1190 0.9905 -0.0689
vn 0.9235 0.3513 -0.1540
vn 0.0510 0.9959 0.0747
vn -0.9770 -0.1052 0.1856
vn -0.4869 -0.8653 -0.1190
vn -0.9832 0.1234 -0.1349
vn -0.1946 -0.9809 0.0000
vn 0.0371 0.9991 0.0197
vn 0.0018 1.0000 -0.0053
vn 0.9816 -0.1912 0.0000
vn 0.9303 -0.1332 -0.3419
vn -0.6996 0.0026 -0.7145
vn -0.5192 -0.5107 -0.6852
vn -0.0442 0.9990 0.0063
vn -0.7928 -0.5825 -0.1792
vn 0.0504 0.9960 0.0742
vn 0.0470 0.9989 -0.0008
vn -0.9939 0.0469 -0.1000
vn -0.9956 0.0903 0.0261
vn 0.9510 -0.3091 0.0000
vn 0.0031 1.0000 0.0002
vn -0.9433 -0.2306 -0.2389
vn -0.4468 0.0884 -0.8902
vn -0.0922 -0.0931 0.9914
vn 0.0189 0.2038 0.9788
vn -0.0802 -0.9816 -0.1733
vn 0.0160 -0.0712 0.9973
vn 0.0162 0.0422 0.9990
vn -0.3848 0.2405 -0.8911
vn -0.3389 0.2061 -0.9180
vn 0.0038 1.0000 -0.0013
vn 0.0024 1.0000 -0.0006
vn -0.0702 0.3304 0.9412
vn 0.0084 0.9998 -0.0155
vn -0.2083 -0.9078 -0.3639
vn -0.2477 0.2852 -0.9259
vn -0.2508 -0.5449 -0.8001
vn 0.0303 0.9964 0.0795
vn -0.3081 -0.8199 -0.4825
vn 0.0034 1.0000 -0.0017
vn 0.0026 1.0000 -0.0006
vn -0.0113 -0.9833 0.1816
vn -0.1818 -0.9601 -0.2125
vn -0.0113 -0.9833 0.1815
usemtl Material
s off
f 101//52 72//52 73//52 92//52
f 177//53 170//53 75//53 94//53
f 115//54 104//54 105//54 77//54
f 181//55 171//55 73//55 77//55
f 155//56 152//56 121//56 135//56
f 132//57 74//57 75//57 136//57
f 169//58 159//58 72//58 101//58
f 147//59 141//59 79//59 100//59
f 163//60 158//60 71//60 91//60
f 193//61 84//61 81//61 196//61
f 174//62 172//62 81//62 88//62
f 201//63 173//63 83//63 189//63
f 199//64 157//64 84//64 193//64
f 144//65 142//65 87//65 96//65
f 96//66 87//66 83//66 90//66
f 197//67 143//67 82//67 194//67
f 84//68 98//68 88//68 81//68
f 171//69 175//69 92//69 73//69
f 143//70 146//70 99//70 82//70
f 140//71 145//71 103//71 74//71
f 175//72 174//72 88//72 92//72
f 176//73 177//73 94//73 90//73
f 162//74 163//74 91//74 95//74
f 173//75 176//75 90//75 83//75
f 145//76 144//76 96//76 103//76
f 103//77 96//77 90//77 94//77
f 157//65 161//65 98//65 84//65
f 161//76 169//76 101//76 98//76
f 98//78 101//78 92//78 88//78
f 146//79 147//79 100//79 99//79
f 74//80 103//80 94//80 75//80
f 160//81 162//81 95//81 78//81
f 148//82 149//82 109//82 112//82
f 187//83 150//83 108//83 178//83
f 188//84 168//84 110//84 180//84
f 167//85 166//85 105//85 104//85
f 165//86 160//86 78//86 114//86
f 164//87 167//87 104//87 115//87
f 151//88 140//88 74//88 117//88
f 137//89 127//89 120//89 130//89
f 72//90 115//90 77//90 73//90
f 180//91 181//91 77//91 105//91
f 131//92 117//92 74//92 132//92
f 185//93 179//93 107//93 134//93
f 168//94 165//94 114//94 110//94
f 159//95 164//95 115//95 72//95
f 148//96 151//96 117//96 106//96
f 186//97 182//97 119//97 136//97
f 184//98 183//98 123//98 126//98
f 154//99 153//99 125//99 128//99
f 129//100 118//100 119//100 126//100
f 182//101 184//101 126//101 119//101
f 152//102 154//102 128//102 121//102
f 122//103 129//103 126//103 123//103
f 138//104 122//104 123//104 134//104
f 131//105 129//105 122//105 138//105
f 156//106 150//106 111//106 133//106
f 137//107 113//107 108//107 139//107
f 141//108 155//108 135//108 79//108
f 118//109 132//109 136//109 119//109
f 113//110 137//110 130//110 76//110
f 129//111 131//111 132//111 118//111
f 183//112 185//112 134//112 123//112
f 170//113 186//113 136//113 75//113
f 106//114 138//114 134//114 107//114
f 117//115 131//115 138//115 106//115
f 153//116 156//116 133//116 125//116
f 127//117 137//117 139//117 124//117
f 130//118 120//118 152//118 155//118
f 93//119 76//119 141//119 147//119
f 97//65 86//65 142//65 144//65
f 191//120 85//120 143//120 197//120
f 85//60 89//60 146//60 143//60
f 80//58 102//58 145//58 140//58
f 102//76 97//76 144//76 145//76
f 89//74 93//74 147//74 146//74
f 106//121 107//121 149//121 148//121
f 179//122 111//122 150//122 187//122
f 116//123 80//123 140//123 151//123
f 112//124 116//124 151//124 148//124
f 127//125 124//125 153//125 154//125
f 120//126 127//126 154//126 152//126
f 139//127 108//127 150//127 156//127
f 76//128 130//128 155//128 141//128
f 124//129 139//129 156//129 153//129
f 86//65 97//65 161//65 157//65
f 112//130 109//130 166//130 167//130
f 113//131 76//131 160//131 165//131
f 76//132 93//132 162//132 160//132
f 93//74 89//74 163//74 162//74
f 102//58 80//58 159//58 169//58
f 89//60 85//60 158//60 163//60
f 195//64 86//64 157//64 199//64
f 116//133 112//133 167//133 164//133
f 178//134 108//134 168//134 188//134
f 97//76 102//76 169//76 161//76
f 80//123 116//123 164//123 159//123
f 108//135 113//135 165//135 168//135
f 100//136 79//136 170//136 177//136
f 114//137 78//137 171//137 181//137
f 91//138 71//138 172//138 174//138
f 194//139 82//139 173//139 201//139
f 78//140 95//140 175//140 171//140
f 95//141 91//141 174//141 175//141
f 99//142 100//142 177//142 176//142
f 82//143 99//143 176//143 173//143
f 149//144 187//144 178//144 109//144
f 166//145 188//145 180//145 105//145
f 110//146 114//146 181//146 180//146
f 133//147 111//147 179//147 185//147
f 135//148 121//148 182//148 186//148
f 128//149 125//149 183//149 184//149
f 121//150 128//150 184//150 182//150
f 125//151 133//151 185//151 183//151
f 79//152 135//152 186//152 170//152
f 107//153 179//153 187//153 149//153
f 109//154 178//154 188//154 166//154
f 158//120 200//120 190//120 71//120
f 172//155 202//155 196//155 81//155
f 142//64 198//64 192//64 87//64
f 87//156 192//156 189//156 83//156
f 86//64 195//64 198//64 142//64
f 85//120 191//120 200//120 158//120
f 71//157 190//157 202//157 172//157
