# Blender v2.78 (sub 0) OBJ File: 'legs.blend'
# www.blender.org
mtllib innerRight.mtl
o Right.001_Cube.002
v 0.162166 0.744573 0.006406
v 0.137360 0.548334 0.010552
v 0.000541 0.690851 -0.106871
v 0.162166 0.744573 0.258281
v -0.000390 0.691539 0.362921
v -0.289011 0.686311 0.090142
v -0.230637 0.686882 -0.110979
v -0.244420 0.686311 0.288665
v 0.170004 0.744573 0.111139
v 0.015889 0.498880 -0.081214
v 0.137360 0.548334 0.214597
v 0.015032 0.499514 0.302685
v -0.255229 0.494701 0.078387
v -0.196922 0.495227 -0.084543
v -0.199845 0.494701 0.237025
v 0.137360 0.548334 0.095397
v -0.328156 1.465093 0.095504
v -0.267151 1.465093 0.419005
v 0.217744 1.460630 0.337184
v 0.013677 1.425884 0.491763
v -0.245220 1.460039 -0.193585
v 0.217744 1.460630 -0.024857
v 0.231438 1.460630 0.125685
v -0.015008 0.268952 -0.144356
v -0.197119 0.265078 0.147285
v 0.103724 0.314792 -0.055969
v 0.103724 0.314792 0.025751
v 0.103724 0.314792 0.141838
v -0.194139 0.265565 -0.147562
v -0.015729 0.269539 0.217336
v -0.219926 0.265078 0.009367
v 0.162166 0.744573 0.227331
v -0.263916 0.686311 0.246907
v 0.137360 0.548334 0.189524
v -0.227557 0.494701 0.203656
v -0.282639 1.465093 0.350958
v 0.217744 1.460630 0.292697
v 0.103724 0.314792 0.117420
v -0.219926 0.265078 0.118275
v 0.162166 0.744573 0.030228
v -0.263916 0.686311 -0.065689
v -0.219926 0.265078 -0.112223
v 0.217744 1.460630 0.009385
v -0.282639 1.465093 -0.128486
v 0.140657 0.548334 0.029851
v -0.227557 0.494701 -0.047853
v 0.103724 0.314792 -0.037381
v -0.153376 0.688504 0.319813
v -0.152986 0.688215 -0.109599
v -0.125800 0.496720 0.264567
v -0.125440 0.496454 -0.083424
v -0.157908 1.448246 -0.191601
v -0.158345 1.448646 0.449524
v -0.133971 0.266703 -0.146485
v -0.134273 0.266949 0.176669
v -0.020911 -0.131819 0.140026
v -0.249201 -0.135667 -0.228270
v -0.249201 -0.135667 -0.063149
v 0.112638 -0.092791 0.078142
v 0.112638 -0.092791 -0.131695
v -0.226636 -0.135667 0.080889
v 0.112638 -0.092791 -0.045961
v -0.020105 -0.132326 -0.224422
v -0.249201 -0.135667 0.050591
v 0.112638 -0.092791 0.052037
v 0.112638 -0.092791 -0.112194
v -0.249201 -0.135667 -0.190712
v -0.153442 -0.134053 0.105695
v -0.153103 -0.134265 -0.226656
v 0.024817 1.450262 -0.178514
vn 0.2598 0.1631 -0.9518
vn 0.9504 0.0709 -0.3028
vn -0.9921 0.1254 0.0000
vn -0.9902 0.1176 0.0757
vn 0.7696 0.2104 0.6028
vn -0.6028 0.0757 0.7943
vn -0.9970 0.0774 0.0000
vn 0.7792 -0.1510 0.6083
vn -0.0113 -0.2638 0.9645
vn -0.5994 0.2204 -0.7695
vn 0.8086 0.2966 -0.5081
vn 0.2482 0.3045 -0.9196
vn -0.0189 0.1318 0.9911
vn -0.5939 0.1419 -0.7919
vn 0.8414 0.0683 0.5361
vn -0.9898 0.1426 0.0000
vn -0.6137 0.3299 -0.7173
vn 0.9305 -0.1630 0.3281
vn 0.7526 0.2494 -0.6095
vn -0.0137 -0.1955 0.9806
vn -0.9998 -0.0219 0.0000
vn -0.9885 0.1247 0.0860
vn -0.5537 -0.1519 0.8187
vn 0.2693 0.3194 -0.9085
vn -0.5091 0.1455 -0.8483
vn 0.9845 0.0484 -0.1686
vn -0.9881 0.1497 -0.0368
vn 0.9627 0.2021 -0.1801
vn -0.9935 0.0854 -0.0755
vn 0.9845 0.1312 -0.1163
vn 0.9669 0.1798 0.1809
vn 0.9920 0.0606 0.1108
vn -0.9908 0.0814 0.1082
vn -0.9903 0.1354 0.0307
vn 0.9973 -0.0729 0.0000
vn 0.9822 0.0432 0.1826
vn -0.9873 0.1566 -0.0253
vn 0.3015 0.1641 -0.9392
vn -0.0113 -0.2645 0.9643
vn 0.3115 0.3091 -0.8985
vn -0.0189 0.1330 0.9909
vn -0.0135 0.1066 0.9942
vn -0.0137 -0.1954 0.9806
vn 0.3539 0.3335 -0.8738
vn -0.5400 -0.1616 0.8260
vn 0.2793 0.1663 -0.9457
vn 0.7935 0.0433 -0.6070
vn 0.3636 0.1358 -0.9216
vn -0.6092 0.0879 0.7881
vn -0.0166 -0.9998 -0.0141
vn -0.0481 0.1011 0.9937
usemtl Material.001
s off
f 53//1 20//1 5//1 48//1
f 36//2 18//2 8//2 33//2
f 34//3 11//3 4//3 32//3
f 40//4 1//4 2//4 45//4
f 46//5 14//5 7//5 41//5
f 1//6 3//6 10//6 2//6
f 43//7 22//7 1//7 40//7
f 42//8 29//8 14//8 46//8
f 54//9 24//9 10//9 51//9
f 11//10 12//10 5//10 4//10
f 33//11 8//11 15//11 35//11
f 48//12 5//12 12//12 50//12
f 51//13 10//13 3//13 49//13
f 4//14 5//14 20//14 19//14
f 41//15 7//15 21//15 44//15
f 32//7 4//7 19//7 37//7
f 38//16 28//16 11//16 34//16
f 28//17 30//17 12//17 11//17
f 67//18 57//18 29//18 42//18
f 35//19 15//19 25//19 39//19
f 69//20 63//20 24//20 54//20
f 65//21 59//21 28//21 38//21
f 45//22 2//22 26//22 47//22
f 2//23 10//23 24//23 26//23
f 50//24 12//24 30//24 55//24
f 59//25 56//25 30//25 28//25
f 17//26 36//26 33//26 6//26
f 16//27 34//27 32//27 9//27
f 6//28 33//28 35//28 13//28
f 9//29 32//29 37//29 23//29
f 27//16 38//16 34//16 16//16
f 13//30 35//30 39//30 31//30
f 62//21 65//21 38//21 27//21
f 13//31 46//31 41//31 6//31
f 31//32 42//32 46//32 13//32
f 23//33 43//33 40//33 9//33
f 9//34 40//34 45//34 16//34
f 58//35 67//35 42//35 31//35
f 6//36 41//36 44//36 17//36
f 16//37 45//37 47//37 27//37
f 18//38 53//38 48//38 8//38
f 29//39 54//39 51//39 14//39
f 8//40 48//40 50//40 15//40
f 14//41 51//41 49//41 7//41
f 7//42 49//42 52//42 21//42
f 57//43 69//43 54//43 29//43
f 15//44 50//44 55//44 25//44
f 26//45 24//45 63//45 60//45
f 55//46 30//46 56//46 68//46
f 47//21 26//21 60//21 66//21
f 39//47 25//47 61//47 64//47
f 31//35 39//35 64//35 58//35
f 27//21 47//21 66//21 62//21
f 25//48 55//48 68//48 61//48
f 1//49 22//49 70//49 3//49
f 52//50 70//50 22//50 43//50 23//50 37//50 19//50 20//50 53//50 18//50 36//50 17//50 44//50 21//50
f 52//51 49//51 3//51 70//51
o Right_Cube.003
v -0.293475 -0.144448 -0.273107
v 0.030608 -0.972393 -0.121145
v -0.051304 -0.998320 -0.186367
v 0.030608 -0.972393 0.023878
v -0.051801 -0.997988 0.071137
v -0.218522 -1.000511 -0.072932
v -0.057064 -1.279978 -0.239278
v -0.192673 -1.000511 -0.189073
v -0.171395 -1.000511 0.020955
v 0.030608 -0.972393 -0.060842
v -0.007306 -0.140288 -0.268305
v -0.265329 -0.144448 0.112788
v -0.008313 -0.139658 0.186401
v 0.158505 -0.091062 -0.152559
v -0.293475 -0.144448 -0.066997
v 0.158505 -0.091062 -0.045542
v 0.158505 -0.091062 0.109401
v -0.020500 -0.464153 -0.192357
v -0.250771 -0.467054 -0.050549
v -0.021260 -0.463714 0.108989
v -0.250771 -0.467054 -0.195741
v -0.032732 -0.742194 -0.169779
v -0.221959 -0.744725 -0.060574
v -0.033326 -0.741811 0.078964
v -0.221959 -0.744725 -0.172384
v 0.104652 -0.429833 0.070476
v 0.104652 -0.429833 -0.035435
v 0.104652 -0.429833 -0.110822
v -0.217474 -0.467054 0.051519
v -0.196932 -0.744725 0.029226
v 0.065056 -0.712243 -0.106989
v 0.065056 -0.712243 -0.048935
v 0.065056 -0.712243 0.032627
v 0.043703 -1.364898 -0.117001
v -0.073783 -1.370419 -0.177817
v 0.043703 -1.364898 0.018226
v -0.074496 -1.370348 0.062293
v -0.276549 -1.370886 -0.072045
v -0.074767 -1.370322 -0.060772
v -0.276549 -1.370886 -0.180341
v -0.276549 -1.370886 0.015500
v 0.043703 -1.364898 -0.060772
v -0.259830 -1.280864 -0.092599
v -0.259830 -1.280864 -0.206218
v 0.060423 -1.269498 -0.165679
v 0.060423 -1.269498 -0.081326
v 0.060423 -1.269498 0.005342
v 0.065858 -1.288360 0.641445
v -0.045420 -1.298542 0.692881
v -0.325671 -1.297366 0.558279
v -0.213765 -1.297366 0.632252
v 0.036752 -1.378011 0.630958
v -0.079293 -1.383462 0.695422
v -0.359559 -1.380300 0.560861
v -0.287361 -1.380300 0.637370
v -0.057039 -1.340801 0.717505
v -0.338595 -1.338122 0.576054
v -0.266576 -1.338122 0.651608
v 0.059668 -1.330455 0.656583
v -0.307255 -1.241961 0.245037
v 0.100707 -1.299976 0.319571
v 0.102685 -1.165759 0.318345
v -0.296902 -1.375593 0.329387
v -0.080312 -1.376905 0.374759
v -0.207309 -1.155764 0.323247
v -0.026578 -1.128994 0.370930
v -0.344243 -1.311728 0.245744
v 0.039532 -1.371454 0.316414
v -0.341143 -1.375593 0.247619
v 0.030608 -0.972393 0.006058
v -0.198110 -1.000511 0.001206
v 0.158505 -0.091062 0.076810
v -0.293475 -0.144448 0.074972
v 0.104652 -0.429833 0.048198
v 0.065056 -0.712243 0.015470
v -0.250771 -0.467054 0.030050
v -0.221959 -0.744725 0.010337
v 0.043703 -1.364898 0.001609
v -0.074553 -1.370343 0.036407
v -0.276549 -1.370886 -0.002914
v 0.060423 -1.269498 -0.012888
v -0.237304 -1.297366 0.616692
v -0.302548 -1.380300 0.621277
v -0.281725 -1.338122 0.635716
v -0.240964 -1.173895 0.307603
v -0.306208 -1.375593 0.312187
v 0.158505 -0.091062 -0.128217
v -0.293475 -0.144448 -0.226226
v 0.030608 -0.972393 -0.107429
v -0.198553 -1.000511 -0.162656
v 0.104652 -0.429833 -0.093674
v -0.221959 -0.744725 -0.146952
v -0.250771 -0.467054 -0.162715
v 0.060423 -1.269498 -0.146492
v -0.259830 -1.280864 -0.180374
v -0.074007 -1.370397 -0.151194
v 0.043703 -1.364898 -0.104211
v -0.276549 -1.370886 -0.155708
v 0.065056 -0.712243 -0.093784
v -0.133583 -0.999453 0.042004
v -0.133374 -0.999592 -0.187938
v -0.173438 -0.142703 -0.271093
v -0.173860 -0.142439 0.143666
v -0.160169 -0.465837 -0.194322
v -0.151167 -0.743664 -0.171291
v -0.160488 -0.465653 0.075625
v -0.151416 -0.743503 0.050090
v -0.191909 -1.370649 -0.067316
v -0.191795 -1.370660 0.035128
v -0.191496 -1.370690 -0.179282
v -0.174777 -1.280492 -0.220086
v -0.143151 -1.297859 0.657684
v -0.200084 -1.381626 0.661721
v -0.178683 -1.339246 0.679250
v -0.206050 -1.376143 0.348419
v -0.140785 -1.144535 0.343841
v -0.191819 -1.370658 0.013579
v -0.191590 -1.370681 -0.153814
v -0.020911 -0.131819 0.140026
v -0.249201 -0.135667 -0.228270
v -0.249201 -0.135667 -0.063149
v 0.112638 -0.092791 0.078142
v 0.112638 -0.092791 -0.131695
v -0.226636 -0.135667 0.080889
v 0.112638 -0.092791 -0.045961
v -0.020105 -0.132326 -0.224422
v -0.249201 -0.135667 0.050591
v 0.112638 -0.092791 0.052037
v 0.112638 -0.092791 -0.112194
v -0.249201 -0.135667 -0.190712
v -0.153442 -0.134053 0.105695
v -0.153103 -0.134265 -0.226656
vn -0.5825 0.0114 0.8127
vn 0.2782 0.0295 -0.9601
vn -0.4521 0.5136 0.7293
vn 0.0882 -0.1561 0.9838
vn 0.4512 -0.8209 -0.3500
vn -0.2496 -0.8666 -0.4322
vn -0.9913 0.1313 0.0000
vn 0.5962 0.0847 -0.7984
vn 0.9914 0.1312 0.0000
vn 0.1362 -0.9667 0.2165
vn -0.0182 0.2297 0.9731
vn 0.0638 -0.9811 -0.1828
vn 0.0377 -0.9993 0.0000
vn -0.9876 0.1570 0.0000
vn -0.4075 0.1976 -0.8916
vn 0.1385 -0.9850 -0.1031
vn -0.5885 0.1987 0.7837
vn -0.0145 -0.0647 0.9978
vn 0.6787 0.2110 -0.7034
vn -0.0144 0.0818 0.9965
vn 0.2327 0.0955 -0.9678
vn 0.9947 0.1032 0.0000
vn 0.2336 0.2133 -0.9487
vn -0.9903 0.1388 0.0000
vn -0.3859 0.1459 -0.9109
vn -0.5595 0.0906 0.8239
vn 0.5654 0.1121 -0.8171
vn -0.4768 0.0770 -0.8756
vn 0.9892 0.0948 0.1122
vn -0.0458 0.9989 0.0002
vn -0.0027 1.0000 0.0001
vn -0.0024 1.0000 -0.0002
vn -0.0464 0.9989 -0.0008
vn 0.9675 -0.2284 0.1088
vn -0.9850 0.1726 0.0000
vn -0.9950 -0.0998 0.0000
vn 0.9086 -0.4162 -0.0349
vn -0.5439 -0.1613 0.8235
vn 0.0642 0.4826 0.8735
vn -0.9853 -0.0699 0.1562
vn -0.0024 0.9998 0.0192
vn 0.9832 -0.1826 0.0000
vn 0.1907 -0.8778 -0.4394
vn 0.2764 0.2856 -0.9176
vn 0.7201 -0.1230 -0.6829
vn -0.3950 -0.3221 -0.8603
vn 0.2548 -0.5735 -0.7785
vn 0.4206 -0.7453 -0.5173
vn -0.4167 0.5792 -0.7006
vn -0.0355 0.9992 0.0205
vn -0.8141 0.5804 -0.0218
vn -0.0439 0.9990 0.0115
vn 0.9745 -0.0545 0.2177
vn 0.4612 -0.8044 -0.3746
vn -0.2757 -0.8664 -0.4162
vn 0.9613 -0.2237 0.1608
vn -0.9934 0.0359 -0.1089
vn 0.0059 0.9998 0.0189
vn 0.1959 -0.8890 -0.4138
vn -0.0368 0.9991 0.0209
vn -0.9016 0.4254 0.0789
vn -0.0214 0.9996 0.0157
vn 0.9858 -0.1675 0.0115
vn 0.5330 -0.8165 -0.2220
vn 0.9885 0.0586 -0.1391
vn 0.1946 -0.9809 0.0000
vn -0.0460 0.9989 0.0002
vn 0.7206 -0.1169 -0.6834
vn 0.4940 -0.6219 -0.6077
vn -0.0362 0.9993 0.0095
vn 0.7899 -0.5743 -0.2151
vn -0.0199 0.9997 0.0147
vn -0.0460 0.9989 -0.0008
vn 0.9764 -0.1860 0.1098
vn 0.9926 0.0459 0.1126
vn -0.0026 1.0000 -0.0002
vn 0.4469 0.0664 -0.8921
vn 0.0883 -0.1041 0.9906
vn -0.0191 0.2306 0.9729
vn 0.0802 -0.9816 -0.1733
vn -0.0161 -0.0665 0.9977
vn -0.0167 0.0821 0.9965
vn 0.3976 0.0997 -0.9121
vn 0.3348 0.2154 -0.9173
vn -0.0028 1.0000 0.0002
vn -0.0023 1.0000 -0.0006
vn 0.0696 0.3348 0.9397
vn -0.0017 0.9999 0.0162
vn 0.2089 -0.8850 -0.4161
vn 0.2808 0.2116 -0.9361
vn 0.2413 -0.6281 -0.7398
vn 0.0066 0.9998 0.0162
vn 0.2675 -0.8703 -0.4136
vn -0.0027 1.0000 0.0002
vn -0.0026 1.0000 -0.0006
vn 0.0113 -0.9833 0.1816
vn 0.1818 -0.9601 -0.2125
vn 0.0113 -0.9833 0.1815
usemtl Material
s off
f 101//52 92//52 73//52 72//52
f 177//53 94//53 75//53 170//53
f 115//54 77//54 105//54 104//54
f 181//55 77//55 73//55 171//55
f 155//56 135//56 121//56 152//56
f 132//57 136//57 75//57 74//57
f 169//58 101//58 72//58 159//58
f 147//59 100//59 79//59 141//59
f 163//60 91//60 71//60 158//60
f 193//61 196//61 81//61 84//61
f 174//62 88//62 81//62 172//62
f 201//63 189//63 83//63 173//63
f 199//64 193//64 84//64 157//64
f 144//65 96//65 87//65 142//65
f 96//66 90//66 83//66 87//66
f 197//67 194//67 82//67 143//67
f 84//68 81//68 88//68 98//68
f 171//69 73//69 92//69 175//69
f 143//70 82//70 99//70 146//70
f 140//58 74//58 103//58 145//58
f 175//71 92//71 88//71 174//71
f 176//72 90//72 94//72 177//72
f 162//73 95//73 91//73 163//73
f 173//74 83//74 90//74 176//74
f 145//75 103//75 96//75 144//75
f 103//76 94//76 90//76 96//76
f 157//65 84//65 98//65 161//65
f 161//75 98//75 101//75 169//75
f 98//77 88//77 92//77 101//77
f 146//78 99//78 100//78 147//78
f 74//79 75//79 94//79 103//79
f 160//80 78//80 95//80 162//80
f 148//81 112//81 109//81 149//81
f 187//82 178//82 108//82 150//82
f 188//83 180//83 110//83 168//83
f 167//84 104//84 105//84 166//84
f 165//85 114//85 78//85 160//85
f 164//86 115//86 104//86 167//86
f 151//87 117//87 74//87 140//87
f 137//88 130//88 120//88 127//88
f 72//89 73//89 77//89 115//89
f 180//90 105//90 77//90 181//90
f 131//91 132//91 74//91 117//91
f 185//92 134//92 107//92 179//92
f 168//93 110//93 114//93 165//93
f 159//87 72//87 115//87 164//87
f 148//86 106//86 117//86 151//86
f 186//94 136//94 119//94 182//94
f 184//95 126//95 123//95 183//95
f 154//96 128//96 125//96 153//96
f 129//97 126//97 119//97 118//97
f 182//98 119//98 126//98 184//98
f 152//99 121//99 128//99 154//99
f 122//100 123//100 126//100 129//100
f 138//101 134//101 123//101 122//101
f 131//102 138//102 122//102 129//102
f 156//103 133//103 111//103 150//103
f 137//104 139//104 108//104 113//104
f 141//105 79//105 135//105 155//105
f 118//106 119//106 136//106 132//106
f 113//107 76//107 130//107 137//107
f 129//108 118//108 132//108 131//108
f 183//109 123//109 134//109 185//109
f 170//110 75//110 136//110 186//110
f 106//111 107//111 134//111 138//111
f 117//112 106//112 138//112 131//112
f 153//113 125//113 133//113 156//113
f 127//114 124//114 139//114 137//114
f 130//115 155//115 152//115 120//115
f 93//116 147//116 141//116 76//116
f 97//65 144//65 142//65 86//65
f 191//117 197//117 143//117 85//117
f 85//60 143//60 146//60 89//60
f 80//58 140//58 145//58 102//58
f 102//75 145//75 144//75 97//75
f 89//73 146//73 147//73 93//73
f 106//118 148//118 149//118 107//118
f 179//82 187//82 150//82 111//82
f 116//87 151//87 140//87 80//87
f 112//86 148//86 151//86 116//86
f 127//119 154//119 153//119 124//119
f 120//120 152//120 154//120 127//120
f 139//121 156//121 150//121 108//121
f 76//122 141//122 155//122 130//122
f 124//123 153//123 156//123 139//123
f 86//65 157//65 161//65 97//65
f 112//124 167//124 166//124 109//124
f 113//125 165//125 160//125 76//125
f 76//126 160//126 162//126 93//126
f 93//73 162//73 163//73 89//73
f 102//58 169//58 159//58 80//58
f 89//60 163//60 158//60 85//60
f 195//64 199//64 157//64 86//64
f 116//86 164//86 167//86 112//86
f 178//127 188//127 168//127 108//127
f 97//75 161//75 169//75 102//75
f 80//87 159//87 164//87 116//87
f 108//93 168//93 165//93 113//93
f 100//128 177//128 170//128 79//128
f 114//129 181//129 171//129 78//129
f 91//130 174//130 172//130 71//130
f 194//131 201//131 173//131 82//131
f 78//132 171//132 175//132 95//132
f 95//133 175//133 174//133 91//133
f 99//134 176//134 177//134 100//134
f 82//135 173//135 176//135 99//135
f 149//136 109//136 178//136 187//136
f 166//137 105//137 180//137 188//137
f 110//138 180//138 181//138 114//138
f 133//139 185//139 179//139 111//139
f 135//140 186//140 182//140 121//140
f 128//141 184//141 183//141 125//141
f 121//142 182//142 184//142 128//142
f 125//143 183//143 185//143 133//143
f 79//144 170//144 186//144 135//144
f 107//145 149//145 187//145 179//145
f 109//146 166//146 188//146 178//146
f 158//117 71//117 190//117 200//117
f 172//147 81//147 196//147 202//147
f 142//64 87//64 192//64 198//64
f 87//148 83//148 189//148 192//148
f 86//64 142//64 198//64 195//64
f 85//117 158//117 200//117 191//117
f 71//149 172//149 202//149 190//149
